[
    {
      "name": "Awesome deals on Clothing. Hurry, Explore Now!",
      "desc": "John sent you $50",
      "date": "5/3/2020 10: 30 AM",
      "icon": "https://portal.fabpik.in/uploads/100015/products/06022021/1613400985.jpg",
      "icon_bg": "bg-green"
      
    },
    {
      "name": "Get Flat Rs.100 Off* On Orders Worth Rs.500 & more. Shop all you can during Big Saving Days & pay next month! Activate Now>",
      "desc": "from Pune Warehouse1",
      "date": "5/3/2020 10: 30 AM",
      "icon": "assets/images/icons/offers-notifications.png",
      "icon_bg": "bg-blue"
    },
    {
      "name": "Your package containing Clothing... has been delivered. Thanks for shopping!",
      "desc": "Your has been successfully Delivered",
      "date": "5/3/2020 10: 30 AM",
      "icon": "assets/images/icons/offers-notifications.png",
      "icon_bg": "bg-green"
    },
    {
      "name": "Order Cancelled",
      "desc": "You have new messages from John",
      "date": "5/3/2020 10: 30 AM",
      "icon": "assets/images/icons/offers-notifications.png",
      "icon_bg": "bg-red"
    },
    {
      "name": "Return Requested",
      "desc": "Your Return Request was successfully placed",
      "date": "5/3/2020 10: 30 AM",
      "icon": "assets/images/icons/offers-notifications.png",
      "icon_bg": "bg-blue"
    },
    {
      "name": "Return Successfull",
      "desc": "The money was successfully sent to your account.",
      "date": "5/3/2020 10: 30 AM",
      "icon": "assets/images/icons/offers-notifications.png",
      "icon_bg": "bg-green"
    },
    {
      "name": "Password changed",
      "desc": "Your password has been changed",
      "date": "5/3/2020 10: 30 AM",
      "icon": "assets/images/icons/offers-notifications.png",
      "icon_bg": "bg-info-not"
    },
    {
      "name": "New Messages",
      "desc": "You have new messages from Support",
      "date": "5/3/2020 10: 30 AM",
      "icon": "assets/images/icons/offers-notifications.png",
      "icon_bg": "bg-blue"
    },
    {
      "name": "Order Received",
      "desc": "John sent you $50",
      "date": "5/3/2020 10: 30 AM",
      "icon": "assets/images/icons/offers-notifications.png",
      "icon_bg": "bg-green"
      
    },
    {
      "name": "Order has been shipped",
      "desc": "from Pune Warehouse1",
      "date": "5/3/2020 10: 30 AM",
      "icon": "assets/images/icons/offers-notifications.png",
      "icon_bg": "bg-blue"
    },
    {
      "name": "Order Delivered",
      "desc": "Your has been successfully Delivered",
      "date": "5/3/2020 10: 30 AM",
      "icon": "https://portal.fabpik.in/uploads/100015/products/06022021/1613400985.jpg",
      "icon_bg": "bg-green"
    },
    {
      "name": "Order Cancelled",
      "desc": "You have new messages from John",
      "date": "5/3/2020 10: 30 AM",
      "icon": "assets/images/icons/offers-notifications.png",
      "icon_bg": "bg-red"
    },
    {
      "name": "Return Requested",
      "desc": "Your Return Request was successfully placed",
      "date": "5/3/2020 10: 30 AM",
      "icon": "https://portal.fabpik.in/uploads/100015/products/06022021/1613400985.jpg",
      "icon_bg": "bg-blue"
    },
    {
      "name": "Return Successfull",
      "desc": "The money was successfully sent to your account.",
      "date": "5/3/2020 10: 30 AM",
      "icon": "assets/images/icons/offers-notifications.png",
      "icon_bg": "bg-info-not"
    },
    {
      "name": "Password changed",
      "desc": "Your password has been changed",
      "date": "5/3/2020 10: 30 AM",
      "icon": "assets/images/icons/offers-notifications.png",
      "icon_bg": "bg-red"
    },
    {
      "name": "New Messages",
      "desc": "You have new messages from Support",
      "date": "5/3/2020 10: 30 AM",
      "icon": "assets/images/icons/offers-notifications.png",
      "icon_bg": "bg-blue"
    }
]